Lab 1: Introduction to R
…
SPSS:

library(haven) # you may need to install the haven package
dat <- read_sav("mtcars.sav")
# see also read_stata(), read_sas()

In R, there are (nearly always) multiple ways to do the same thing. These are the tidy methods of reading in data that I recommend, but there are other options out there. For example, you may like the rio package which has one import function that is supposed to work for all data types.

Exploring Data

dat is a tibble (a tidy data frame)

dat

# A tibble: 32 × 12
   model         mpg   cyl  disp    hp  drat    wt  qsec    vs    am  gear  carb
   <chr>       <dbl> <dbl> <dbl> <dbl> <dbl> <dbl> <dbl> <dbl> <dbl> <dbl> <dbl>
 1 Mazda RX4    21       6  160    110  3.9   2.62  16.5     0     1     4     4
 2 Mazda RX4 …  21       6  160    110  3.9   2.88  17.0     0     1     4     4
 3 Datsun 710   22.8     4  108     93  3.85  2.32  18.6     1     1     4     1
 4 Hornet 4 D…  21.4     6  258    110  3.08  3.22  19.4     1     0     3     1
 5 Hornet Spo…  18.7     8  360    175  3.15  3.44  17.0     0     0     3     2
 6 Valiant      18.1     6  225    105  2.76  3.46  20.2     1     0     3     1
 7 Duster 360   14.3     8  360    245  3.21  3.57  15.8     0     0     3     4
 8 Merc 240D    24.4     4  147.    62  3.69  3.19  20       1     0     4     2
 9 Merc 230     22.8     4  141.    95  3.92  3.15  22.9     1     0     4     2
10 Merc 280     19.2     6  168.   123  3.92  3.44  18.3     1     0     4     4
# ℹ 22 more rows
…
# A tibble: 1 × 12
  model       mpg   cyl  disp    hp  drat    wt  qsec    vs    am  gear  carb
  <chr>     <dbl> <dbl> <dbl> <dbl> <dbl> <dbl> <dbl> <dbl> <dbl> <dbl> <dbl>
1 Mazda RX4    21     6   160   110   3.9  2.62  16.5     0     1     4     4

dat[2, 3] # second row of third column

# A tibble: 1 × 1
    cyl
  <dbl>
1     6

dat[, 4] # fourth column

# A tibble: 32 × 1
    disp
   <dbl>
 1  160 
 2  160 
 3  108 
 4  258 
 5  360 
 6  225 
 7  360 
 8  147.
 9  141.
10  168.
# ℹ 22 more rows
Select Columns

Notice that there is often more than one way to do something in R

The following commands all extract the first column named “model”

dat$model
dat[, 1]
dat[, "model"]

Output of running any of the above methods:

dat[, 1]

# A tibble: 32 × 1
   model            
   <chr>            
 1 Mazda RX4        
 2 Mazda RX4 Wag    
 3 Datsun 710       
 4 Hornet 4 Drive   
 5 Hornet Sportabout
 6 Valiant          
 7 Duster 360       
 8 Merc 240D        
 9 Merc 230         
10 Merc 280         
# ℹ 22 more rows

Select Columns

Select some columns (tidy):

dat %>% 
  dplyr::select(model, mpg, cyl)

# A tibble: 32 × 3
   model               mpg   cyl
   <chr>             <dbl> <dbl>
 1 Mazda RX4          21       6
 2 Mazda RX4 Wag      21       6
 3 Datsun 710         22.8     4
 4 Hornet 4 Drive     21.4     6
 5 Hornet Sportabout  18.7     8
 6 Valiant            18.1     6
 7 Duster 360         14.3     8
 8 Merc 240D          24.4     4
 9 Merc 230           22.8     4
10 Merc 280           19.2     6
# ℹ 22 more rows
…
